<?xml version="1.0" encoding="utf-8"?>
<!-- Generator: Adobe Illustrator 16.0.0, SVG Export Plug-In . SVG Version: 6.00 Build 0)  -->
<!DOCTYPE svg PUBLIC "-//W3C//DTD SVG 1.1//EN" "http://www.w3.org/Graphics/SVG/1.1/DTD/svg11.dtd">
<svg version="1.1" id="Layer_1" xmlns="http://www.w3.org/2000/svg" xmlns:xlink="http://www.w3.org/1999/xlink" x="0px" y="0px"
	 width="1219px" height="948px" viewBox="0 0 1219 948" enable-background="new 0 0 1219 948" xml:space="preserve">
<g id="layer1">
	<g>
		<path d="M666.877,0.435c9.183,0,10.607,0.419,13.471,2.425c1.388,0.928,2.846,1.717,3.266,1.722
			c0.42,0.006,1.185,0.436,1.596,1.001c0.483,0.566,2.772,1.996,5.205,3.217c2.434,1.152,4.792,2.652,5.274,3.288
			c0.481,0.566,1.385,1.068,2.084,1.077c0.63,0.008,2.021,0.657,2.99,1.439c0.969,0.783,2.359,1.431,3.059,1.44
			c1.889,0.025,4.174,1.875,4.638,3.839c0.196,0.982,1.023,1.903,1.72,2.192c0.696,0.219,1.455,0.999,1.655,1.771
			s1.098,1.694,2.002,2.056c0.834,0.361,3.325,2.492,5.464,4.83c3.104,3.33,3.994,4.811,4.382,7.265
			c0.256,1.752,1.063,4.212,1.816,5.481c0.752,1.269,1.484,4.148,1.662,6.529c0.239,3.082,0.712,4.347,1.614,4.919
			c1.598,0.861,1.697,3.871,0.222,4.411c-1.828,0.605-1.311,3.831,0.708,4.627c1.601,0.651,1.736,1.002,1.485,4.008
			c-0.175,2.656-0.535,3.421-1.585,3.547c-0.116,0.03-0.238,0.044-0.363,0.044c-0.71,0-1.524-0.454-1.933-1.054
			c-0.372-0.542-0.59-0.825-0.72-0.825c-0.157,0-0.185,0.419-0.196,1.302c-0.012,0.909-0.668,2.86-1.456,4.249
			c-1.22,2.293-1.376,3.55-1.141,12.229c0.369,14.348,0.368,14.418-0.284,16.088l-0.511,1.603l8.745,0.116
			c0.607,0.008,1.195,0.012,1.761,0.012c4.255,0,7.23-0.222,7.481-0.589c0.286-0.416,1.485-1.169,2.682-1.713
			c1.268-0.613,3.17-1.567,4.367-2.181c6.252-3.232,10.7-4.708,14.539-4.708c1.264,0,2.463,0.16,3.638,0.471
			c1.674,0.442,4.747,0.833,6.706,0.858c3.218,0.042,3.913,0.332,5.706,2.314c1.511,1.681,2.412,2.368,6.676,2.368
			c2.741,0,6.874-0.284,13.453-0.772c3.957-0.279,6.646-0.445,9.29-0.445c4.049,0,7.996,0.387,16.235,1.342
			c8.034,0.876,18.094,2.059,22.356,2.465c7.686,0.872,44.712,10.248,50.834,12.918c5.704,2.524,19.935,5.721,39.412,8.917
			c3.979,0.683,9.35,2.013,11.854,3.026c2.506,1.012,7.735,2.341,11.575,2.952c7.052,1.143,8.026,1.506,16.707,6.448
			c6.597,3.726,9.496,6.703,12.146,12.615c3.057,6.967,3.275,11.518,0.749,17.431c-0.435,1.044-0.157,1.258,1.312,1.277
			c1.05,0.014,2.723,0.456,3.766,1.03c1.042,0.503,4.739,1.322,8.231,1.788c3.911,0.542,7.468,1.428,9.065,2.289
			c1.458,0.858,3.479,1.515,4.457,1.528c0.979,0.013,2.65,0.665,3.83,1.45c1.108,0.784,2.779,1.436,3.549,1.446
			c0.839,0.011,2.229,0.66,3.2,1.372c0.899,0.782,2.917,1.578,4.452,1.878c1.466,0.299,3.693,1.098,4.805,1.743
			c1.181,0.715,2.919,1.508,3.896,1.731c1.046,0.294,3.964,1.801,6.603,3.375c2.637,1.574,5.139,2.867,5.559,2.872
			c0.42,0.006,1.531,0.581,2.432,1.292c0.899,0.782,2.568,1.573,3.684,1.868c1.115,0.295,2.854,1.158,3.753,1.939
			c0.97,0.712,2.221,1.359,2.851,1.367c0.699,0.009,3.062,1.23,5.351,2.729c2.22,1.499,6.11,3.579,8.544,4.661
			c4.035,1.802,6.461,3.443,9.919,6.568c0.691,0.569,1.454,1.069,1.665,1.072c0.209,0.003,2.079,1.427,4.225,3.205
			c2.075,1.776,4.226,3.204,4.715,3.211c0.49,0.006,1.809,0.793,2.916,1.717c1.037,0.923,3.327,2.353,5.064,3.286
			c1.737,0.862,3.75,2.149,4.51,2.858c0.761,0.64,2.221,1.429,3.266,1.722c1.047,0.224,2.297,0.94,2.918,1.508
			c0.553,0.567,1.456,1.069,1.945,1.075c0.488,0.076,2.783,1.226,5.073,2.586c2.291,1.359,5.139,2.937,6.391,3.513
			c1.252,0.576,2.499,1.502,2.771,1.996c0.547,0.986,2.56,2.272,7.078,4.432c1.251,0.646,3.193,1.861,4.304,2.646
			c1.299,1.018,2.551,1.42,4.751,1.42c0.262,0,0.537-0.006,0.827-0.017c0.106-0.002,0.213-0.003,0.32-0.003
			c1.995,0,3.985,0.368,4.775,0.91c0.832,0.571,2.992,1.229,4.809,1.463c1.885,0.305,4.182,1.175,5.15,1.957
			c0.97,0.782,2.5,1.433,3.34,1.444c0.84,0.011,2.3,0.66,3.27,1.373c0.9,0.781,2.986,1.718,4.59,2.16
			c1.603,0.511,2.923,1.158,2.919,1.438c-0.004,0.35,0.69,0.779,1.525,1.07c0.907,0.222,3.054,1.859,4.85,3.633
			c1.864,1.844,3.945,3.2,4.785,3.211s2.162,0.519,2.853,1.227c1.59,1.421,3.672,2.708,7.011,4.221
			c2.015,1.006,2.705,1.785,3.306,3.961c0.598,2.387,0.325,7.141-0.627,10.417c-0.432,1.504-3.214,2.64-6.619,2.64
			c-0.067,0-0.136,0-0.203-0.001l-2.939,0.031l1.871,1.424c1.108,0.784,1.933,1.915,1.927,2.404
			c-0.007,0.49,0.616,1.058,1.452,1.278c1.395,0.368,1.459,0.79,1.177,6.243c-0.36,6.083-1.729,9.073-4.47,9.946
			c-0.914,0.338-1.206,1.244-1.244,4.112c-0.055,4.127-1.771,6.973-4.724,8.053c-2.11,0.812-2.126,1.931-0.067,5.106
			c1.578,2.33,1.639,3.031,1.229,7.573c-0.399,3.703-0.767,5.027-1.609,5.296c-0.632,0.132-1.688,0.607-2.321,0.949
			c-0.765,0.386-1.979,0.579-3.104,0.579c-1.261,0-2.411-0.242-2.701-0.726c-0.204-0.423-1.459-0.719-2.789-0.737
			c-2.028-0.027-2.651-0.525-4.434-3.277c-1.166-1.765-2.123-3.457-2.119-3.807c0.014-1.049-6.48-7.222-8.707-8.231
			c-1.183-0.506-2.499-1.433-3.052-2c-0.549-0.777-2.014-1.146-4.252-1.176c-2.378-0.032-3.703-0.399-4.6-1.39
			c-0.689-0.709-2.497-1.573-4.034-1.803c-1.535-0.3-3.415-0.955-4.179-1.455c-0.763-0.5-3.133-1.161-5.298-1.469
			c-2.723-0.386-4.394-1.038-5.359-2.101c-0.759-0.85-1.933-1.984-2.486-2.481c-0.623-0.498-1.095-1.833-1.081-2.883
			c0.016-1.119-0.593-2.807-1.349-3.796c-0.757-0.989-1.371-2.117-1.365-2.537c0.021-1.609-4.001-9.638-5.452-10.987
			c-0.829-0.78-2.134-2.687-2.883-4.236c-1.565-3.239-5.909-8.124-7.238-8.142c-0.42-0.006-1.669-0.792-2.706-1.785
			c-1.104-1.064-2.704-1.785-3.823-1.8c-1.329-0.018-2.024-0.376-2.015-1.076c0.009-0.699-0.687-1.059-1.945-1.075
			c-1.05-0.014-3.274-1.023-5.009-2.165c-1.734-1.143-3.609-2.147-4.169-2.154c-0.561-0.007-2.021-0.657-3.13-1.441
			c-1.179-0.785-2.919-1.438-3.898-1.451c-0.979-0.013-2.511-0.663-3.409-1.445c-0.829-0.78-2.219-1.568-3.055-1.859
			c-0.765-0.291-1.875-1.075-2.355-1.781c-0.479-0.776-1.451-1.349-2.15-1.358s-2.02-0.656-2.99-1.369
			c-0.898-0.782-2.848-1.577-4.243-1.875c-1.396-0.298-2.856-0.948-3.338-1.514c-0.552-0.637-2.296-1.01-5.164-1.047
			c-3.638-0.048-4.613-0.341-6.202-1.832c-1.244-1.206-2.705-1.785-4.314-1.806c-2.799-0.037-16.107-4.131-16.654-5.118
			c-0.205-0.353-1.735-1.002-3.339-1.443c-4.393-1.178-10.863-3.922-18.715-8.014c-1.389-0.788-3.061-1.37-3.689-1.378
			c-0.56-0.008-1.601-0.651-2.22-1.429c-0.827-0.991-2.081-1.427-4.039-1.453c-1.539-0.021-3.77-0.68-4.949-1.395
			c-1.18-0.716-3.548-1.586-5.223-1.889s-4.252-1.176-5.642-1.894c-1.599-0.861-4.04-1.383-6.559-1.417
			c-3.358-0.044-3.984-0.263-4.247-1.525c-0.231-0.928-0.505-1.281-1.617-1.281c-0.486,0-1.133,0.067-2.007,0.183
			c-0.672,0.072-1.267,0.111-1.796,0.111c-1.292,0-2.195-0.227-2.884-0.732c-0.544-0.43-1.065-0.63-1.549-0.63
			c-0.316,0-0.616,0.085-0.895,0.248c-0.556,0.337-1.518,0.601-2.147,0.601c-0.01,0-0.021,0-0.029,0c-0.005,0-0.011,0-0.016,0
			c-0.702,0-1.888,0.611-2.661,1.364c-0.976,0.95-3.517,1.423-6.053,1.423c-2.625,0-5.244-0.506-6.12-1.514
			c-0.759-0.85-2.501-1.433-4.736-1.672c-2.305-0.311-3.767-0.819-4.177-1.594c-0.479-0.846-1.733-1.143-5.581-1.194
			c-3.917-0.052-5.452-0.422-7.465-1.638c-2.22-1.428-3.546-1.656-12.289-1.912c-10.801-0.362-18.594-0.544-24.08-0.544
			c-6.805,0-10.063,0.28-11.116,0.848c-1.058,0.615-2.746,1.362-3.873,1.837c-1.055,0.406-1.9,0.884-1.901,1.024
			c-0.003,0.21,0.881,2.111,1.97,4.364c1.021,2.183,2.711,6.683,3.786,9.985c1.007,3.302,2.489,7.519,3.373,9.49
			c0.885,1.901,2.983,7.176,4.604,11.605c1.688,4.5,4.606,11.396,6.581,15.48c1.977,4.014,4.214,9.361,5.09,11.892
			c2.153,6.465,4.66,12.725,8.13,20.118c1.634,3.45,3.596,8.514,4.398,11.253c0.804,2.669,3.104,8.577,5.145,13.012
			c2.041,4.435,3.663,8.724,3.654,9.424c-0.01,0.699,0.92,4.49,2.058,8.423c3.617,12.152,2.055,19.198-6.558,30.208l-4.482,5.678
			l2.395,4.09c3.419,5.992,7.44,19.269,9.714,32.522c2.472,14.096,3.292,31.388,2.121,45.856
			c-1.677,20.967-5.646,51.209-7.697,58.179c-3.882,13.172-14.186,30.387-35.988,60.043c-13.466,18.363-18.722,24.24-29.114,32.43
			c-3.819,3.027-7.146,5.922-7.362,6.479c-0.437,1.253-11.067,6.221-14.645,6.942c-2.946,0.521-3.661,1.7-3.86,6.176
			c-0.086,1.188-0.744,3.349-1.602,4.667c-0.787,1.318-1.809,4.523-2.192,7.037c-0.454,2.582-1.621,6.275-2.558,8.292
			c-0.936,1.946-1.735,4.245-1.747,5.085c-0.021,1.539-1.996,8.09-5.635,18.676c-1.892,5.502-5.137,12.736-6.488,14.467
			c-0.425,0.414-0.933,1.667-1.227,2.782c-0.294,1.046-1.719,3.056-3.276,4.364c-2.195,2-2.838,3.041-2.862,4.86
			c-0.02,1.469-0.525,2.651-1.372,3.2c-0.706,0.48-1.49,1.589-1.781,2.425c-0.29,0.901-0.925,1.591-1.413,1.591
			c-0.003,0-0.005,0-0.008,0c-0.001-0.001-0.004-0.001-0.006-0.001c-0.489,0-1.266,0.828-1.769,1.937
			c-0.934,1.806-1.575,2.707-4.906,5.952c-0.852,0.897-1.564,1.868-1.569,2.218c-0.004,0.35-0.645,1.181-1.424,1.87
			c-0.777,0.619-1.42,1.59-1.428,2.149c-0.013,0.979-1.791,3.195-5.123,6.439l-1.63,1.588l3.358,0.045c0.056,0,0.111,0,0.167,0
			c1.973,0,3.928-0.456,5.025-1.121c1.401-0.908,6.186-1.367,14.129-1.367c6.449,0,14.981,0.303,25.478,0.912
			c13.144,0.733,19.221,1.443,23.894,2.555c8.579,2.073,15.477,4.264,18.884,5.848c1.529,0.791,3.061,1.37,3.41,1.375
			c0.489,0.007,6.401,2.673,9.388,4.322c0.626,0.288,2.159,0.798,3.484,1.096c1.325,0.297,3.483,1.096,4.662,1.881
			c1.25,0.716,3.898,1.521,5.854,1.826s3.905,0.962,4.389,1.458c0.553,0.497,3.411,1.305,6.414,1.694
			c3.073,0.391,6.631,1.207,7.951,1.854c3.34,1.444,9.351,1.943,28.652,2.549c5.099,0.152,10.796,0.223,16.586,0.223
			c18.036,0,36.956-0.676,41.364-1.624c2.326-0.499,6.534-0.848,9.646-0.848c0.174,0,0.344,0.001,0.511,0.003
			c0.227,0.003,0.452,0.005,0.676,0.005c3.55,0,6.544-0.383,8.925-1.207c2.727-0.894,6.626-1.292,10.595-1.292
			c7.385,0,15.008,1.381,15.753,3.53c0.27,0.702,1.164,1.904,2.063,2.756c0.897,0.852,1.581,2.12,1.571,2.89
			c-0.03,2.238,3.632,5.785,6.01,5.816c1.888,0.024,2.372,0.451,3.598,3.056c2.109,4.507,1.868,6.812-1.034,9.362
			c-2.973,2.549-2.936,5.068,0.143,5.109c2.519,0.033,4.929,2.934,4.892,5.732c-0.017,1.259-0.955,3.485-2.169,5.288
			c-2.496,3.604-2.653,4.862-0.811,8.385c0.75,1.479,1.348,3.866,1.328,5.336c-0.019,1.468,0.502,4.414,1.172,6.662
			c0.671,2.177,2.133,7.934,3.189,12.775c0.984,4.841,2.327,9.126,2.812,9.553c0.555,0.356,1.159,2.255,1.343,4.216
			c0.186,1.891,0.721,3.718,1.135,4.143c1.246,0.996,2.382,5.069,2.342,8.077c-0.02,1.469,0.381,3.014,0.935,3.44
			c0.483,0.427,1.094,1.974,1.354,3.446c0.251,2.173,0.802,2.88,2.817,3.886c2.363,1.15,2.431,1.362,2.383,4.929
			c-0.036,2.798-0.552,4.681-2.056,7.319c-1.647,2.917-1.946,4.313-1.928,8.161c0.037,2.519,0.218,4.76,0.493,5.044
			c0.62,0.707,0.433,4.344-0.356,5.802c-0.574,1.112-0.298,1.396,2.21,2.269c3.83,1.311,4.582,2.579,3.071,5.708
			c-0.647,1.32-1.226,2.712-1.229,3.063c-0.004,0.279-0.789,1.458-1.783,2.565c-0.995,1.176-1.788,2.914-1.803,4.033
			c-0.015,1.12-0.385,2.653-0.815,3.488c-0.644,1.11-0.511,1.602,0.667,2.457c1.802,1.283,3.507,4.595,3.479,6.763
			c-0.012,0.909-1.157,2.854-2.576,4.374c-2.91,3.11-3.845,5.057-3.885,7.994c-0.015,1.189-0.448,2.233-1.081,2.435
			c-0.563,0.272-1.771,1.656-2.63,3.114c-0.989,1.742-2.05,2.631-3.043,2.631c-0.589,0-1.155-0.313-1.667-0.945
			c-0.413-0.564-2.293-1.219-4.038-1.522c-3.561-0.536-5.018-1.535-11.304-7.565c-2.972-2.838-4.14-4.463-4.122-5.722
			c0.013-0.979-0.395-1.965-0.951-2.182c-0.558-0.218-2.762-2.766-4.963-5.593c-2.202-2.828-6.885-8.487-10.469-12.593
			s-8.195-9.904-10.393-13.012c-2.129-3.037-4.944-7.062-6.249-8.898c-1.374-1.907-8.201-9.414-15.171-16.782
			c-11.185-11.619-12.74-13.163-14.677-13.163c-0.131,0-0.264,0.008-0.401,0.019c-0.42,0.039-0.761,0.063-1.039,0.063
			c-1.068,0-1.195-0.354-1.179-1.631c0.013-0.975,0.371-1.808,0.857-1.808c0.002,0,0.005,0,0.006,0c0.003,0,0.006,0,0.009,0
			c0.479,0,0.274-0.56-0.479-1.405c-0.761-0.71-3.404-1.794-5.916-2.388c-2.511-0.592-7.67-1.921-11.505-2.95
			c-3.835-1.03-10.251-2.585-14.228-3.477c-4.046-0.894-9.829-2.649-12.89-4.02c-7.236-3.034-26.39-9.585-30.02-10.263
			c-0.637-0.097-1.148-0.156-1.595-0.156c-1.317,0-2.073,0.517-3.818,2.113c-3.273,2.959-6.572,4.346-10.648,4.346
			c-0.863,0-1.761-0.062-2.7-0.185c-4.047-0.536-17.321-0.895-29.601-0.895c-5.52,0-10.839,0.072-15.029,0.233
			c-2.232,0.103-4.424,0.149-6.557,0.149c-4.687,0-9.089-0.229-13.027-0.618c-4.821-0.483-18.245-1.221-29.854-1.654l-21.19-0.701
			l-1.846-3.243c-1.097-1.764-2.118-3.807-2.39-4.509c-0.271-0.634-0.823-1.201-1.242-1.206c-0.421-0.006-1.602-0.65-2.71-1.505
			c-1.731-1.353-3.198-1.512-18.583-2.065c-15.384-0.624-16.642-0.78-16.976-1.975c-0.197-0.982-0.963-1.271-3.9-1.311
			c-2.379-0.031-4.75-0.623-7.043-1.843c-1.945-0.936-4.313-1.806-5.293-1.819c-1.049-0.014-2.649-0.664-3.618-1.446
			c-0.97-0.783-2.641-1.435-3.83-1.451c-1.119-0.014-2.791-0.596-3.69-1.308c-0.899-0.782-2.567-1.574-3.684-1.868
			c-1.115-0.294-2.854-1.157-3.753-1.938c-0.97-0.713-2.29-1.359-2.99-1.369c-0.699-0.01-1.46-0.648-1.659-1.421
			c-0.269-0.913-1.031-1.413-2.15-1.429c-0.91-0.012-2.23-0.589-2.921-1.298c-0.69-0.708-1.8-1.493-2.426-1.781
			c-0.695-0.289-1.522-1.279-1.859-2.263c-0.337-0.984-0.956-1.762-1.376-1.768c-0.35-0.005-0.897-0.852-1.094-1.974
			c-0.266-1.053-1.016-2.532-1.705-3.312c-0.689-0.778-1.93-2.194-2.826-3.186c-3.448-3.824-8.073-13.75-8.027-17.248
			c0.02-1.539-0.51-3.785-1.125-4.912c-1.773-3.382-1.402-15.621,0.629-20.982c0.868-2.227,1.606-5.085,1.622-6.274
			s0.675-3.42,1.464-4.878c0.79-1.529,1.742-4.805,2.125-7.319c0.384-2.513,1.562-6.905,2.578-9.761
			c4.939-13.647,7.677-24.946,7.852-32.85c0.033-2.448,0.406-4.263,1.043-4.744c0.565-0.412,1.158-2.993,1.479-5.997
			c0.318-2.864,0.992-6.283,1.57-7.605c0.578-1.392,1.104-4.113,1.131-6.142c0.026-2.029,0.549-4.471,1.121-5.442
			c1.432-2.431,1.433-2.5,3.622-9.397c1.026-3.484,2.773-8.569,3.79-11.425l1.887-5.151l-1.773-3.383
			c-1.025-1.833-1.833-4.222-1.819-5.271c0.032-2.448-1.266-10.091-1.947-11.5c-0.271-0.634-0.74-2.179-1.002-3.512
			c-0.262-1.332-0.867-3.229-1.414-4.217c-1.091-2.113-2.279-7.517-2.71-12c-0.362-4.272,0.493-5.521,9.21-13.801l6.942-6.555
			l1.128-5.933c1.811-9.841,4.485-16.382,12.584-30.968c10.105-18.127,10.104-17.987,9.557-18.904
			c-0.617-0.988-10.602-2.519-18.085-2.758l-5.454-0.213l-0.407-11.549c-0.195-6.37-0.51-14.35-0.814-17.782l-0.406-6.303
			l-3.476-1.655c-1.947-0.935-3.962-2.012-4.517-2.369c-0.555-0.356-2.639-1.503-4.584-2.509c-2.017-1.006-4.723-2.651-6.11-3.579
			c-1.387-0.999-3.401-2.004-4.448-2.228c-1.046-0.293-2.575-1.083-3.475-1.795c-0.9-0.712-2.5-1.433-3.615-1.728
			c-1.116-0.225-2.366-0.941-2.849-1.507c-0.412-0.565-1.176-0.995-1.596-1c-0.49-0.007-1.879-0.795-3.194-1.792
			c-1.317-0.997-3.056-1.79-3.965-1.802s-2.16-0.659-2.779-1.436c-0.689-0.779-1.73-1.422-2.431-1.432
			c-0.629-0.008-2.647-0.805-4.453-1.808s-3.614-1.797-4.034-1.803c-0.42-0.005-2.507-0.943-4.589-2.16
			c-2.084-1.147-4.585-2.439-5.56-2.872c-0.975-0.363-2.225-1.079-2.779-1.436c-0.555-0.427-2.152-1.288-3.473-2.005
			c-1.32-0.647-3.194-1.792-4.165-2.434c-0.973-0.572-2.851-1.367-4.247-1.595c-1.465-0.299-2.926-0.948-3.339-1.444
			c-0.414-0.495-2.014-1.146-3.479-1.445c-1.466-0.229-3.067-0.88-3.548-1.517c-0.413-0.565-1.943-1.215-3.408-1.514
			c-1.396-0.299-3.135-1.021-3.896-1.731c-0.76-0.709-2.64-1.434-4.176-1.664c-1.535-0.301-3.066-0.951-3.479-1.446
			c-0.413-0.565-1.803-1.213-3.129-1.441c-2.723-0.456-9.758-2.788-14.767-4.953c-1.81-0.724-3.97-1.382-4.879-1.394
			c-0.909-0.012-2.649-0.665-3.829-1.45c-1.763-1.082-6.476-1.741-10.208-1.741c-2.438,0-4.457,0.281-4.963,0.911
			c-2.134,2.63-6.993,5.015-10.844,5.244c-2.171,0.181-4.909,0.844-6.107,1.528c-1.175,0.738-3.355,1.262-5.022,1.262
			c-0.034,0-0.068,0-0.103-0.001c-0.055,0-0.11-0.001-0.165-0.001c-1.955,0-3.58,0.466-4.68,1.336
			c-0.977,0.747-2.771,1.347-3.96,1.347c-0.016,0-0.031,0-0.046,0c-0.026,0-0.052,0-0.079,0c-1.362,0-2.456,0.472-2.947,1.29
			c-0.571,0.902-2.048,1.442-4.57,1.759c-2.033,0.253-4.492,1.06-5.411,1.747c-1.032,0.804-2.723,1.268-4.62,1.268
			c-0.051,0-0.103,0-0.155-0.001c-0.055-0.001-0.11-0.001-0.166-0.001c-1.955,0-3.579,0.464-4.678,1.266
			c-1.131,0.895-3.448,1.424-6.81,1.729c-2.731,0.174-6.659,0.891-8.556,1.496c-2.194,0.7-4.771,0.968-12.88,0.968
			c-2.795,0-6.249-0.032-10.57-0.089c-17.769-0.235-20.215-0.408-22.159-1.553c-1.25-0.646-3.759-1.449-5.574-1.753
			c-1.886-0.235-4.114-1.034-5.084-1.747c-1.178-0.855-3.76-1.379-8.442-1.721c-3.705-0.259-8.173-1.018-10.053-1.672
			c-2.361-0.862-4.83-1.122-13.919-1.122c-1.635,0-3.485,0.008-5.587,0.023c-10.147,0.146-16.938,0.475-18.274,1.018
			c-1.195,0.404-6.869,0.888-12.607,1.022c-8.609,0.236-10.781,0.487-11.914,1.452c-0.779,0.689-2.817,1.362-4.429,1.55
			c-1.821,0.186-3.65,0.932-4.431,1.761c-0.773,0.821-2.092,1.429-3.001,1.429c-0.009,0-0.018,0-0.026,0c-0.01,0-0.019,0-0.028,0
			c-1.11,0-2.235,0.896-3.649,2.89c-1.783,2.565-2.077,3.611-2.135,8.018c-0.056,4.197-0.349,5.243-1.697,6.624
			c-0.853,0.968-1.566,2.008-1.571,2.358c-0.016,1.259-8.909,12.336-12.806,15.992c-2.675,2.537-9.713,5.639-12.684,5.639
			c-0.019,0-0.037,0-0.055,0c-1.049-0.014-2.232-0.52-2.714-1.086c-0.549-0.697-1.411-1.043-2.325-1.043
			c-1.034,0-2.134,0.443-2.926,1.324c-0.706,0.756-1.686,1.369-2.247,1.369c-0.004,0-0.007,0-0.011,0c-0.002,0-0.005,0-0.007,0
			c-0.486,0-0.91,0.622-0.919,1.318c-0.02,1.538-1.244,2.102-4.838,2.102c-0.164,0-0.333-0.001-0.507-0.003
			c-6.016-0.08-8.843-3.196-6.138-6.659c1.565-2.008,1.358-2.221-1.779-3.102c-0.95-0.263-1.605-0.415-2.146-0.415
			c-0.966,0-1.566,0.484-2.839,1.679c-1.706,1.529-2.749,1.961-5.015,1.961c-0.084,0-0.17-0.001-0.258-0.001
			c-2.658-0.035-3.214-0.323-4.376-2.367c-0.89-1.481-1.353-3.516-1.32-5.965c0.026-1.958-0.232-3.641-0.582-3.645
			c-0.419-0.006-1.529-0.791-2.565-1.784c-1.037-0.993-2.285-1.779-2.845-1.787c-0.49-0.006-1.599-0.791-2.425-1.782
			c-0.827-0.99-1.936-1.774-2.425-1.781c-0.56-0.008-1.114-0.435-1.316-0.997c-0.203-0.563-1.174-1.205-2.219-1.499
			c-1.047-0.224-2.504-1.083-3.265-1.792c-0.761-0.709-2.149-1.498-3.125-1.79c-0.976-0.293-2.293-1.15-2.984-1.859
			c-0.689-0.779-1.941-1.355-2.851-1.367c-0.909-0.012-2.16-0.658-2.85-1.437c-0.689-0.779-2.01-1.426-2.919-1.438
			c-0.909-0.012-3.139-0.671-4.949-1.395c-2.713-1.155-5.578-1.473-16.906-1.903c-12.238-0.442-13.984-0.675-16.415-2.037
			c-1.749-0.975-3.061-1.464-4.257-1.464c-1.179,0-2.246,0.475-3.509,1.431c-1.463,1.165-2.729,1.528-5.84,1.528
			c-0.198,0-0.403-0.001-0.617-0.004c-5.037-0.067-6.075-0.92-6.787-5.267c-0.644-4.207-0.643-4.277-4.42-4.327
			c-0.155-0.002-0.304-0.003-0.448-0.003c-2.391,0-3.3,0.297-3.908,1.345c-0.567,0.842-1.154,1.279-1.877,1.279
			c-1.005,0-2.274-0.844-4.122-2.618c-2.349-2.27-2.827-3.186-3.002-5.777c-0.105-2.59-0.447-3.225-1.634-3.38
			c-0.837-0.151-2.087-0.868-2.777-1.646c-0.896-1.061-2.081-1.357-5.579-1.403c-6.086-0.081-6.572-0.367-6.524-4.004
			c0.038-2.869-0.099-3.08-2.951-4.377c-3.616-1.657-4.373-2.577-4.816-6.151c-0.257-1.683-0.938-3.161-1.838-3.803
			c-0.763-0.5-1.379-1.558-1.37-2.257c0.009-0.7-0.807-2.459-1.767-3.941c-1.44-2.188-1.707-3.171-1.256-5.474
			c0.229-1.466,0.811-3.138,1.237-3.622c0.841-1.024,4.885-2.21,7.412-2.21c0.035,0,0.069,0,0.104,0.001c0.013,0,0.026,0,0.04,0
			c0.975,0,2.285-0.468,2.983-1.08c1.487-1.379,11.643-2.155,30.466-2.395c2.051-0.032,3.79-0.05,5.268-0.05
			c5.481,0,7.381,0.241,8.365,0.86c0.971,0.643,4.602,1.25,9.634,1.597c4.403,0.338,8.875,0.747,9.922,0.971
			c0.503,0.117,0.883,0.183,1.167,0.183c0.625,0,0.794-0.32,0.805-1.137c0.031-2.368,1.272-3.357,4.572-3.357
			c0.793,0,1.705,0.057,2.747,0.166c1.543,0.161,2.625,0.261,3.466,0.261c1.672,0,2.393-0.396,3.897-1.493
			c1.563-1.14,3.065-1.727,4.476-1.727c0.884,0,1.731,0.23,2.534,0.7c0.308,0.147,0.674,0.222,1.125,0.222
			c0.873,0,2.066-0.28,3.781-0.857c1.952-0.737,4.178-1.333,4.966-1.333c0.006,0,0.013,0,0.02,0c0.018,0,0.036,0,0.054,0
			c1.142,0,1.352-0.511,1.386-3.06c0.047-3.567-0.438-3.923-5.895-3.996c-4.547-0.06-5.374-0.98-5.035-5.454
			c0.252-3.215,0.324-3.354,2.496-3.535c0.144-0.014,0.294-0.021,0.448-0.021c1.198,0,2.651,0.406,3.388,0.911
			c1.101,0.789,2.759,1.181,4.31,1.181c1.67,0,3.216-0.454,3.809-1.353c0.616-0.998,1.545-1.348,3.713-1.348
			c0.095,0,0.193,0,0.293,0.002c1.749,0.023,3.145,0.321,3.14,0.671c-0.005,0.35,0.818,1.62,1.852,2.823
			c1.378,1.627,2.489,2.202,4.168,2.225c1.399,0.018,2.582,0.524,3.131,1.301c0.48,0.706,1.729,1.562,2.775,1.786
			c0.478,0.137,0.861,0.212,1.183,0.212c0.709,0,1.114-0.365,1.559-1.226c0.502-0.902,1.284-1.872,1.777-2.146
			c0.563-0.272,0.996-1.246,1.008-2.155c0.032-2.378,1.442-3.2,6.485-3.623c0.92-0.063,1.736-0.098,2.458-0.098
			c3.949,0,5.085,1.041,5.044,4.116c-0.026,1.924,0.049,2.461,0.836,2.461c0.244,0,0.555-0.051,0.952-0.128
			c0.288-0.039,0.534-0.062,0.747-0.062c0.822,0,1.14,0.331,1.405,1.279c0.265,1.124,0.89,1.481,2.639,1.504
			c1.679,0.022,2.581,0.524,3.473,1.865l1.165,1.834l8.401-0.378c4.62-0.219,9.455-0.784,10.651-1.259
			c1.267-0.542,6.592-1.102,12.052-1.31c7.07-0.256,10.083-0.636,10.932-1.325c0.709-0.69,3.444-1.213,7.086-1.445
			c3.22-0.167,6.376-0.755,6.943-1.237c0.565-0.413,3.513-1.143,6.597-1.521c3.013-0.38,6.312-1.106,7.297-1.583
			c0.986-0.477,3.652-1.071,5.965-1.32c2.312-0.25,4.77-0.917,5.407-1.468c0.637-0.551,3.024-1.22,5.267-1.47
			s4.911-0.984,5.829-1.602c0.912-0.613,2.236-1.152,2.802-1.152c0.004,0,0.008,0,0.011,0c0.003,0,0.006,0,0.008,0
			c1.13,0,5.151-3.09,9.676-7.428c1.339-1.167,2.885-2.192,3.52-2.192c0.002,0,0.005,0,0.008,0c0.005,0,0.009,0,0.014,0
			c0.632,0,1.748-0.542,2.45-1.157c0.991-0.896,2.955-1.221,7.784-1.367c4.479-0.081,7.214-0.534,8.905-1.421
			c1.478-0.68,4.916-1.404,8.417-1.637c3.222-0.237,6.589-0.893,7.364-1.372c0.847-0.548,4.003-1.136,7.085-1.375
			c4.202-0.294,5.747-0.693,6.459-1.664c0.705-0.935,1.684-1.187,4.979-1.187c0.368,0,0.765,0.003,1.193,0.009
			c0.153,0.001,0.305,0.003,0.458,0.003c3.192,0,6.237-0.442,8.584-1.212c2.319-0.809,6.946-1.447,11.707-1.734
			c5.391-0.278,8.476-0.728,9.675-1.481c1.065-0.689,2.917-0.936,10.203-0.936c2.857,0,6.55,0.038,11.358,0.102l19.867,0.263
			l1.445,1.838c0.929,1.182,1.347,1.634,2.513,1.634c0.649,0,1.529-0.14,2.858-0.373c2.104-0.392,4.702-1.127,5.759-1.673
			c1.056-0.476,3.583-1.142,5.615-1.325c2.241-0.181,4.209-0.854,4.989-1.613c0.824-0.869,2.166-1.272,4.153-1.272
			c0.067,0,0.134,0,0.202,0.001c0.042,0,0.085,0.001,0.128,0.001c1.858,0,3.972-0.529,5.489-1.466
			c2.035-1.102,3.201-1.358,10.665-1.358c1.324,0,2.845,0.008,4.605,0.021c12.522,0.096,12.802,0.1,17.253,2.117
			c2.503,1.153,5.004,2.515,5.557,3.012c0.554,0.498,2.434,1.152,4.179,1.455c1.675,0.302,3.903,1.171,4.942,1.954l1.87,1.424
			l3.378-1.495c3.238-1.496,4.638-1.548,24.79-1.701c11.755-0.054,21.835-0.41,22.399-0.753c0.565-0.412,3.858-0.789,7.429-0.951
			l6.441-0.334l-3.144-5.639c-1.709-3.101-4.377-7.684-6.021-10.225c-3.976-6.28-14.859-29.723-15.916-34.494
			c-1.253-5.754-2.818-9.063-6.192-13.166c-2.029-2.502-3.274-3.632-4.779-3.632c-1.047,0-2.219,0.547-3.869,1.558
			c-1.541,0.884-3.427,1.694-4.205,1.694c-0.006,0-0.01,0-0.015,0c-0.01,0-0.02,0-0.029,0c-0.771,0-2.015,0.399-2.781,0.872
			c-0.776,0.48-4.079,1.625-7.379,2.491c-3.3,0.866-8.783,2.752-12.23,4.246c-4.574,1.968-8.646,3.034-14.746,4.002
			c-7.292,1.163-8.767,1.633-10.397,3.221c-1.063,1.035-2.549,2.275-3.323,2.614c-0.828,0.435-2.559,0.656-4.551,0.656
			c-2.078,0-4.44-0.24-6.363-0.73c-0.615-0.154-1.221-0.241-1.965-0.241c-2.123,0-5.363,0.712-13.108,2.63
			c-11.429,2.846-12.485,3.039-22.584,3.039c-0.508,0-1.038,0-1.594-0.001c-10.425,0.002-12.316,0.187-15.062,1.479
			c-1.741,0.739-4.029,1.402-5.093,1.402c-0.011,0-0.022,0-0.033,0c-0.018,0-0.035,0-0.054,0c-1.149,0-3.763,0.45-5.836,1.042
			c-1.752,0.493-2.96,0.722-4.034,0.722c-0.82,0-1.562-0.134-2.407-0.388c-1.394-0.438-4.814-0.973-7.61-1.22
			c-3.564-0.257-5.586-0.844-6.763-1.769c-0.969-0.783-3.197-1.652-5.012-1.956c-2.723-0.456-3.973-1.172-6.595-3.936
			c-2.968-3.048-3.31-3.682-3.271-6.55c0.023-1.749,0.402-3.982,0.835-4.957c0.647-1.321,0.586-2.021-0.306-3.292
			c-1.51-2.259-1.294-7.993,0.433-11.609c0.937-2.017,1.239-3.761,0.981-5.444c-0.254-1.892-0.03-3.009,1.038-4.394
			c0.783-1.039,1.927-2.843,2.573-4.093c0.646-1.181,1.781-2.356,2.554-2.625c0.702-0.2,1.695-1.237,2.129-2.281
			c0.72-1.529,5.958-6.078,8.067-6.889c0.281-0.137,1.981-1.653,3.682-3.31c2.041-1.919,3.795-3.013,4.915-3.013
			c0.008,0,0.015,0,0.022,0c0.018,0,0.035,0,0.052,0c1.021,0,1.703-0.406,1.709-0.957c0.016-1.153,1.469-1.76,4.298-1.76
			c0.089,0,0.181,0,0.273,0.002c0.034,0,0.068,0,0.101,0c1.292,0,2.497-0.325,2.707-0.663c0.267-0.421,1.033-0.637,2.107-0.637
			c1.229,0,2.86,0.283,4.606,0.866c0.794,0.231,1.399,0.377,2.06,0.377c1.427,0,3.107-0.679,7.486-2.629
			c3.8-1.699,8.582-3.455,10.616-3.848c2.735-0.523,5.412-1.887,9.508-4.771c3.178-2.197,7.128-4.663,8.819-5.48
			c1.689-0.817,3.174-1.917,3.46-2.473c0.216-0.553,0.776-1.032,1.264-1.032c0.003,0,0.006,0,0.01,0s0.006,0,0.01,0
			c0.557,0,1.119-0.619,1.407-1.311c0.22-0.767,1.352-1.662,2.546-2.065c1.124-0.335,2.604-1.155,3.171-1.777
			c0.622-0.605,2.234-0.998,3.868-0.998c0.044,0,0.089,0,0.133,0c0.049,0.001,0.098,0.001,0.146,0.001
			c2.103,0,3.837-0.616,6.321-2.224c1.977-1.304,10.374-6.72,18.703-12.207c8.328-5.417,17.5-11.173,20.32-12.814
			c2.75-1.643,5.855-3.63,6.775-4.458c3.908-3.465,5.949-4.576,8.352-4.576c0.035,0,0.07,0,0.105,0
			c0.159,0.002,0.31,0.003,0.449,0.003c1.947,0,2.072-0.26,2.1-2.348c0.021-1.469-0.386-2.524-1.012-2.813
			c-0.557-0.217-1.037-0.853-1.03-1.413c0.026-1.958-4.203-10.2-5.728-11.27c-1.041-0.644-1.792-2.053-2.049-3.735
			c-1.09-7.501-1.136-9.32-0.283-10.359c0.711-0.83,0.718-1.319,0.165-1.887c-0.483-0.496-0.82-1.48-0.81-2.25
			c0.024-1.819-2.72-5.913-4.322-6.494c-1.323-0.437-1.561-3.659-0.483-5.744c0.358-0.625,1.025-3.484,1.482-6.277
			c0.457-2.792,1.337-5.859,1.979-6.76c1.213-1.803,2.322-11.583,1.661-14.461c-0.309-1.138-0.586-1.525-1.501-1.525
			c-0.271,0-0.598,0.034-0.999,0.093c-0.215,0.026-0.416,0.04-0.603,0.04c-2.071,0-2.472-1.698-1.822-7.208
			c0.473-3.981,0.412-4.682-0.962-6.589s-1.503-2.749-1.169-6.802c0.323-3.284,0.907-5.096,1.9-6.132
			c1.136-1.244,1.437-2.849,1.872-9.28c0.445-7.201,0.665-7.968,2.735-11.019c2.781-4.021,9.444-10.51,11.342-11.114
			c0.771-0.2,1.409-0.751,1.413-1.101c0.005-0.345,0.417-0.617,0.966-0.617c0.008,0,0.016,0,0.022,0c0.003,0,0.005,0,0.008,0
			c0.565,0,1.967-0.748,3.093-1.708c1.193-0.956,2.729-1.701,3.572-1.701c0.007,0,0.013,0,0.019,0c0.014,0,0.027,0,0.04,0
			c0.819,0,1.434-0.337,1.439-0.75c0.016-1.189,4.333-4.911,7.784-6.614c2.115-0.989,4.292-1.518,6.781-1.518
			c0.078,0,0.157,0,0.235,0.001c0.043,0,0.087,0,0.132,0c2.111,0,5.517-0.642,7.582-1.368c3.164-1.147,5.896-1.391,15.063-1.479
			C664.195,0.443,665.609,0.435,666.877,0.435z"/>
	</g>
	<g>
		<path d="M93.934,156.506c1.523,0,2.575,0.305,3.303,0.88c0.9,0.712,2.924,1.088,6.142,1.131
			c5.106,0.068,14.519,2.571,19.104,5.081c1.458,0.858,2.988,1.508,3.408,1.514c0.7,0.009,12.479,8.771,14.896,11.112
			c0.553,0.497,2.212,1.988,3.596,3.196c1.454,1.208,2.624,2.624,2.617,3.183c-0.006,0.49,0.543,1.197,1.168,1.625
			c2.986,1.649,13.25,19.136,13.207,22.424c-0.008,0.56,0.596,2.527,1.411,4.356c1.151,2.884,1.339,4.566,1.047,10.789
			c-0.295,6.433-0.169,7.484,0.808,7.707c2.719,0.736,3.458,13.619,1.072,19.395c-0.795,1.949-1.459,4.529-1.476,5.788
			c-0.026,1.959-1.267,5.86-4.375,13.375c-1.014,2.575-3.285,4.994-5.821,6.29c-1.056,0.545-2.475,1.996-3.122,3.247
			c-0.645,1.181-1.717,2.846-2.426,3.606s-1.498,2.149-1.791,3.125c-0.292,0.976-1.294,2.642-2.218,3.679
			c-2.91,3.385-13.905,11.478-15.607,11.478c-0.002,0-0.005,0-0.007,0c-0.003,0-0.006,0-0.009,0c-0.429,0-1.684,0.401-2.802,0.942
			c-6.321,3.057-12.985,5.83-14.131,5.83c-0.003,0-0.006,0-0.009,0c-0.004,0-0.008,0-0.011,0c-0.64,0-2.456,0.673-3.997,1.486
			c-2.031,1.141-3.006,1.45-9.615,1.45c-2.104,0-4.78-0.032-8.244-0.077c-14.34-0.19-15.178-0.341-17.537-1.842
			c-1.389-0.858-3.617-1.587-4.947-1.604c-1.399-0.019-3.209-0.672-4.249-1.456c-0.969-0.782-2.43-1.431-3.199-1.441
			c-0.839-0.011-2.72-0.666-4.249-1.456c-1.529-0.79-3.199-1.442-3.829-1.45c-0.56-0.007-1.391-0.648-1.871-1.424
			c-0.479-0.776-1.38-1.417-2.08-1.426c-0.63-0.009-2.088-0.797-3.194-1.792c-1.177-0.995-2.425-1.781-2.845-1.787
			c-0.35-0.004-1.041-0.644-1.45-1.418c-0.41-0.775-1.381-1.417-2.08-1.427c-0.91-0.012-1.393-0.508-1.381-1.417
			c0.014-1.049-0.471-1.406-1.73-1.422c-1.189-0.016-1.744-0.373-1.732-1.283c0.009-0.699-0.606-1.757-1.367-2.466
			c-0.761-0.64-1.377-1.698-1.37-2.257c0.008-0.56-0.266-1.053-0.545-1.057c-0.839-0.011-4.955-6.223-4.939-7.412
			c0.006-0.489-0.401-1.404-0.884-1.9c-0.553-0.497-1.157-2.464-1.341-4.426c-0.255-1.893-0.996-4.071-1.685-4.85
			c-2.274-2.619-4.035-7.05-4.47-11.184c-0.181-2.171-0.84-5.259-1.449-6.806c-0.88-2.25-0.982-5.121-0.625-16.24
			c0.449-12.797,0.531-13.706,2.406-17.95c1.083-2.504,1.956-5.011,1.965-5.711c0.022-1.679,4.823-10.221,7.238-12.987
			c1.136-1.245,2.063-2.562,2.067-2.841c0.013-0.979,14.4-14.922,16.867-16.289c1.27-0.753,2.403-1.857,2.621-2.414
			c0.364-1.113,6.21-5.5,7.344-5.5c0.002,0,0.004,0,0.006,0c0.001,0,0.003,0,0.004,0c0.354,0,1.336-0.545,2.251-1.3
			c0.919-0.688,2.819-1.502,4.151-1.764c1.333-0.262,3.513-1.073,4.92-1.684c1.69-0.817,5.687-1.464,12.62-1.932
			c5.602-0.345,11.555-0.826,13.306-0.943C93.185,156.523,93.572,156.506,93.934,156.506z"/>
	</g>
</g>
</svg>
